18.7621 68.3588 0	1	1	2	2
18.7629	68.3588	0	1	2	2	3
18.7638 68.3588 0	1	3	2	4
18.7647	68.3588	0	1	4	2	4
18.7655	68.3588	0	1	5	2	5
18.7663	68.3588 0	1	6	2	5
18.7621 68.3580	0	2	1	3	2
18.7663	68.3580 0	2	6	3	5
18.7621 68.3571 0	3	1	3	2
18.7663	68.3571 0	3	6	4	6
18.7621 68.3563 0	4	1	3	2
18.7629	68.3563	0	4	2	3	3
18.7638 68.3563 0	4	3	4	4
18.7655	68.3563	0	4	5	5 	5
18.7621 68.3555 0	5	1	6	2
18.7629	68.3555	0	5	2	6	3
18.7638 68.3555 0	5	3	5	4
18.7621 68.3547 0	6	1	6	2
18.7629	68.3580	1	2	2	3	3
18.7638 68.3580	1	2	3	3	4
18.7663	68.3563 1	4	6	5	5
18.7647	68.3555	1	5	4	6	4
18.7663	68.3555 1	5	6	6	6
18.7663	68.3547 1	6	6	6	5
18.7629	68.3547	2	6	2	6	3
18.7647	68.3580	2	2	4	3	4
18.7655	68.3580	2	2	5	3	5
18.7629	68.3571	3	3	2	3	3
18.7655	68.3571	4	3	5	4	4
18.7638 68.3547 4	6	3	6	4
18.7647	68.3571	5	3	4	4	4
18.7647	68.3547	7	6	4	6	5
18.7638 68.3571 7	3	3	4	4
18.7647	68.3563	20	4	4	5	5
18.7655	68.3555	24	5	5	6	5
18.7655	68.3547	35	6	5	0	0





























