18.7621 68.3588 A11	
18.7629	68.3588	A12	
18.7638 68.3588 A13	
18.7647	68.3588	A14	
18.7655	68.3588	A15	
18.7663	68.3588 A16	
18.7621 68.3580 A21		
18.7629	68.3580	A22	
18.7638 68.3580 A23	
18.7647	68.3580	A24	
18.7655	68.3580	A25
18.7663	68.3580 A26
18.7621 68.3571 A31
18.7629	68.3571	A32
18.7638 68.3571 A33
18.7647	68.3571	A34
18.7655	68.3571	A35	
18.7663	68.3571 A36
18.7621 68.3563 A41
18.7629	68.3563	A42
18.7638 68.3563 A43
18.7647	68.3563	A44
18.7655	68.3563	A45	
18.7663	68.3563 A46
18.7621 68.3555 A51
18.7629	68.3555	A52
18.7638 68.3555 A53
18.7647	68.3555	A54
18.7655	68.3555	A55
18.7663	68.3555 A56
18.7621 68.3547 A61
18.7629	68.3547	A62
18.7638 68.3547 A63
18.7647	68.3547	A64
18.7655	68.3547	A65	
18.7663	68.3547 A66	




























